simulation/qsim/mini_mips.msim.vcd
$comment
	File created using the following command:
		vcd file mini_mips.msim.vcd -direction
$end
$date
	Mon Dec 23 10:03:21 2024
$end
$version
	ModelSim Version 10.5b
$end
$timescale
	1ps
$end

$scope module mini_mips_vhd_vec_tst $end
$var wire 1 ! clk $end
$var wire 1 " data_in [15] $end
$var wire 1 # data_in [14] $end
$var wire 1 $ data_in [13] $end
$var wire 1 % data_in [12] $end
$var wire 1 & data_in [11] $end
$var wire 1 ' data_in [10] $end
$var wire 1 ( data_in [9] $end
$var wire 1 ) data_in [8] $end
$var wire 1 * data_in [7] $end
$var wire 1 + data_in [6] $end
$var wire 1 , data_in [5] $end
$var wire 1 - data_in [4] $end
$var wire 1 . data_in [3] $end
$var wire 1 / data_in [2] $end
$var wire 1 0 data_in [1] $end
$var wire 1 1 data_in [0] $end
$var wire 1 2 data_out [15] $end
$var wire 1 3 data_out [14] $end
$var wire 1 4 data_out [13] $end
$var wire 1 5 data_out [12] $end
$var wire 1 6 data_out [11] $end
$var wire 1 7 data_out [10] $end
$var wire 1 8 data_out [9] $end
$var wire 1 9 data_out [8] $end
$var wire 1 : data_out [7] $end
$var wire 1 ; data_out [6] $end
$var wire 1 < data_out [5] $end
$var wire 1 = data_out [4] $end
$var wire 1 > data_out [3] $end
$var wire 1 ? data_out [2] $end
$var wire 1 @ data_out [1] $end
$var wire 1 A data_out [0] $end

$scope module i1 $end
$var wire 1 B gnd $end
$var wire 1 C vcc $end
$var wire 1 D unknown $end
$var wire 1 E devoe $end
$var wire 1 F devclrn $end
$var wire 1 G devpor $end
$var wire 1 H ww_devoe $end
$var wire 1 I ww_devclrn $end
$var wire 1 J ww_devpor $end
$var wire 1 K ww_clk $end
$var wire 1 L ww_data_in [15] $end
$var wire 1 M ww_data_in [14] $end
$var wire 1 N ww_data_in [13] $end
$var wire 1 O ww_data_in [12] $end
$var wire 1 P ww_data_in [11] $end
$var wire 1 Q ww_data_in [10] $end
$var wire 1 R ww_data_in [9] $end
$var wire 1 S ww_data_in [8] $end
$var wire 1 T ww_data_in [7] $end
$var wire 1 U ww_data_in [6] $end
$var wire 1 V ww_data_in [5] $end
$var wire 1 W ww_data_in [4] $end
$var wire 1 X ww_data_in [3] $end
$var wire 1 Y ww_data_in [2] $end
$var wire 1 Z ww_data_in [1] $end
$var wire 1 [ ww_data_in [0] $end
$var wire 1 \ ww_data_out [15] $end
$var wire 1 ] ww_data_out [14] $end
$var wire 1 ^ ww_data_out [13] $end
$var wire 1 _ ww_data_out [12] $end
$var wire 1 ` ww_data_out [11] $end
$var wire 1 a ww_data_out [10] $end
$var wire 1 b ww_data_out [9] $end
$var wire 1 c ww_data_out [8] $end
$var wire 1 d ww_data_out [7] $end
$var wire 1 e ww_data_out [6] $end
$var wire 1 f ww_data_out [5] $end
$var wire 1 g ww_data_out [4] $end
$var wire 1 h ww_data_out [3] $end
$var wire 1 i ww_data_out [2] $end
$var wire 1 j ww_data_out [1] $end
$var wire 1 k ww_data_out [0] $end
$var wire 1 l \~QUARTUS_CREATED_ADC1~_CHSEL_bus\ [4] $end
$var wire 1 m \~QUARTUS_CREATED_ADC1~_CHSEL_bus\ [3] $end
$var wire 1 n \~QUARTUS_CREATED_ADC1~_CHSEL_bus\ [2] $end
$var wire 1 o \~QUARTUS_CREATED_ADC1~_CHSEL_bus\ [1] $end
$var wire 1 p \~QUARTUS_CREATED_ADC1~_CHSEL_bus\ [0] $end
$var wire 1 q \clk~inputclkctrl_INCLK_bus\ [3] $end
$var wire 1 r \clk~inputclkctrl_INCLK_bus\ [2] $end
$var wire 1 s \clk~inputclkctrl_INCLK_bus\ [1] $end
$var wire 1 t \clk~inputclkctrl_INCLK_bus\ [0] $end
$var wire 1 u \data_in[0]~input_o\ $end
$var wire 1 v \data_in[1]~input_o\ $end
$var wire 1 w \data_in[2]~input_o\ $end
$var wire 1 x \data_in[3]~input_o\ $end
$var wire 1 y \data_in[4]~input_o\ $end
$var wire 1 z \data_in[5]~input_o\ $end
$var wire 1 { \data_in[6]~input_o\ $end
$var wire 1 | \data_in[7]~input_o\ $end
$var wire 1 } \data_in[8]~input_o\ $end
$var wire 1 ~ \data_in[9]~input_o\ $end
$var wire 1 !! \data_in[10]~input_o\ $end
$var wire 1 "! \data_in[11]~input_o\ $end
$var wire 1 #! \data_in[12]~input_o\ $end
$var wire 1 $! \data_in[13]~input_o\ $end
$var wire 1 %! \data_in[14]~input_o\ $end
$var wire 1 &! \data_in[15]~input_o\ $end
$var wire 1 '! \~QUARTUS_CREATED_GND~I_combout\ $end
$var wire 1 (! \~QUARTUS_CREATED_UNVM~~busy\ $end
$var wire 1 )! \~QUARTUS_CREATED_ADC1~~eoc\ $end
$var wire 1 *! \data_out[0]~output_o\ $end
$var wire 1 +! \data_out[1]~output_o\ $end
$var wire 1 ,! \data_out[2]~output_o\ $end
$var wire 1 -! \data_out[3]~output_o\ $end
$var wire 1 .! \data_out[4]~output_o\ $end
$var wire 1 /! \data_out[5]~output_o\ $end
$var wire 1 0! \data_out[6]~output_o\ $end
$var wire 1 1! \data_out[7]~output_o\ $end
$var wire 1 2! \data_out[8]~output_o\ $end
$var wire 1 3! \data_out[9]~output_o\ $end
$var wire 1 4! \data_out[10]~output_o\ $end
$var wire 1 5! \data_out[11]~output_o\ $end
$var wire 1 6! \data_out[12]~output_o\ $end
$var wire 1 7! \data_out[13]~output_o\ $end
$var wire 1 8! \data_out[14]~output_o\ $end
$var wire 1 9! \data_out[15]~output_o\ $end
$var wire 1 :! \clk~input_o\ $end
$var wire 1 ;! \clk~inputclkctrl_outclk\ $end
$var wire 1 <! \sq[0]~2_combout\ $end
$var wire 1 =! \sq[1]~0_combout\ $end
$var wire 1 >! \sq[2]~1_combout\ $end
$var wire 1 ?! \PC[0]~4_combout\ $end
$var wire 1 @! \Equal1~0_combout\ $end
$var wire 1 A! \PC[1]~0_combout\ $end
$var wire 1 B! \PC[1]~1_combout\ $end
$var wire 1 C! \AR[1]~feeder_combout\ $end
$var wire 1 D! \Equal0~0_combout\ $end
$var wire 1 E! \PC[2]~2_combout\ $end
$var wire 1 F! \AR[2]~feeder_combout\ $end
$var wire 1 G! \PC[3]~3_combout\ $end
$var wire 1 H! \Memory_inst|memory~21_combout\ $end
$var wire 1 I! \IR[14]~feeder_combout\ $end
$var wire 1 J! \DR1[0]~feeder_combout\ $end
$var wire 1 K! \immediate1~0_combout\ $end
$var wire 1 L! \immediate1~1_combout\ $end
$var wire 1 M! \immediate1~q\ $end
$var wire 1 N! \DR1[0]~0_combout\ $end
$var wire 1 O! \DR1[2]~feeder_combout\ $end
$var wire 1 P! DR1 [15] $end
$var wire 1 Q! DR1 [14] $end
$var wire 1 R! DR1 [13] $end
$var wire 1 S! DR1 [12] $end
$var wire 1 T! DR1 [11] $end
$var wire 1 U! DR1 [10] $end
$var wire 1 V! DR1 [9] $end
$var wire 1 W! DR1 [8] $end
$var wire 1 X! DR1 [7] $end
$var wire 1 Y! DR1 [6] $end
$var wire 1 Z! DR1 [5] $end
$var wire 1 [! DR1 [4] $end
$var wire 1 \! DR1 [3] $end
$var wire 1 ]! DR1 [2] $end
$var wire 1 ^! DR1 [1] $end
$var wire 1 _! DR1 [0] $end
$var wire 1 `! IR [15] $end
$var wire 1 a! IR [14] $end
$var wire 1 b! IR [13] $end
$var wire 1 c! IR [12] $end
$var wire 1 d! IR [11] $end
$var wire 1 e! IR [10] $end
$var wire 1 f! IR [9] $end
$var wire 1 g! IR [8] $end
$var wire 1 h! IR [7] $end
$var wire 1 i! IR [6] $end
$var wire 1 j! IR [5] $end
$var wire 1 k! IR [4] $end
$var wire 1 l! IR [3] $end
$var wire 1 m! IR [2] $end
$var wire 1 n! IR [1] $end
$var wire 1 o! IR [0] $end
$var wire 1 p! sq [2] $end
$var wire 1 q! sq [1] $end
$var wire 1 r! sq [0] $end
$var wire 1 s! \Memory_inst|data_out\ [15] $end
$var wire 1 t! \Memory_inst|data_out\ [14] $end
$var wire 1 u! \Memory_inst|data_out\ [13] $end
$var wire 1 v! \Memory_inst|data_out\ [12] $end
$var wire 1 w! \Memory_inst|data_out\ [11] $end
$var wire 1 x! \Memory_inst|data_out\ [10] $end
$var wire 1 y! \Memory_inst|data_out\ [9] $end
$var wire 1 z! \Memory_inst|data_out\ [8] $end
$var wire 1 {! \Memory_inst|data_out\ [7] $end
$var wire 1 |! \Memory_inst|data_out\ [6] $end
$var wire 1 }! \Memory_inst|data_out\ [5] $end
$var wire 1 ~! \Memory_inst|data_out\ [4] $end
$var wire 1 !" \Memory_inst|data_out\ [3] $end
$var wire 1 "" \Memory_inst|data_out\ [2] $end
$var wire 1 #" \Memory_inst|data_out\ [1] $end
$var wire 1 $" \Memory_inst|data_out\ [0] $end
$var wire 1 %" AR [3] $end
$var wire 1 &" AR [2] $end
$var wire 1 '" AR [1] $end
$var wire 1 (" AR [0] $end
$var wire 1 )" PC [3] $end
$var wire 1 *" PC [2] $end
$var wire 1 +" PC [1] $end
$var wire 1 ," PC [0] $end
$upscope $end
$upscope $end
$enddefinitions $end
#0
$dumpvars
0!
0B
1C
xD
1E
1F
1G
1H
1I
1J
0K
xu
xv
xw
xx
xy
xz
x{
x|
x}
x~
x!!
x"!
x#!
x$!
x%!
x&!
0'!
z(!
z)!
0*!
0+!
0,!
0-!
0.!
0/!
00!
01!
02!
03!
04!
05!
06!
07!
08!
09!
0:!
0;!
1<!
0=!
0>!
1?!
0@!
0A!
0B!
0C!
1D!
0E!
0F!
0G!
1H!
0I!
0J!
0K!
0L!
0M!
0N!
0O!
02
03
04
05
06
07
08
09
0:
0;
0<
0=
0>
0?
0@
0A
xL
xM
xN
xO
xP
xQ
xR
xS
xT
xU
xV
xW
xX
xY
xZ
x[
0\
0]
0^
0_
0`
0a
0b
0c
0d
0e
0f
0g
0h
0i
0j
0k
xP!
xQ!
xR!
xS!
xT!
xU!
xV!
xW!
xX!
xY!
xZ!
x[!
x\!
0]!
x^!
0_!
x`!
0a!
xb!
xc!
xd!
xe!
xf!
xg!
xh!
xi!
xj!
xk!
xl!
xm!
xn!
xo!
0p!
0q!
0r!
xs!
xt!
xu!
xv!
xw!
xx!
xy!
xz!
x{!
x|!
x}!
0~!
x!"
x""
x#"
x$"
0%"
0&"
0'"
0("
0)"
0*"
0+"
0,"
1q
1r
1s
0t
0l
0m
0n
0o
0p
x"
x#
x$
x%
x&
x'
x(
x)
x*
x+
x,
x-
x.
x/
x0
x1
$end
#5000
1!
1K
1:!
1t
1;!
1r!
1~!
1I!
0<!
1=!
1@!
0D!
#10000
0!
0K
0:!
0t
0;!
#15000
1!
1K
1:!
1t
1;!
0r!
1q!
1,"
1a!
1J!
1O!
0?!
1<!
0@!
1K!
1L!
#20000
0!
0K
0:!
0t
0;!
#25000
1!
1K
1:!
1t
1;!
1r!
1M!
0<!
0=!
1>!
0K!
1N!
#30000
0!
0K
0:!
0t
0;!
#35000
1!
1K
1:!
1t
1;!
0r!
0q!
1p!
1_!
1]!
1,!
1*!
1<!
0N!
1i
1k
1A
1?
#40000
0!
0K
0:!
0t
0;!
#45000
1!
1K
1:!
1t
1;!
1r!
0<!
1=!
#50000
0!
0K
0:!
0t
0;!
#55000
1!
1K
1:!
1t
1;!
0r!
1q!
1<!
#60000
0!
0K
0:!
0t
0;!
#65000
1!
1K
1:!
1t
1;!
1r!
0<!
0=!
0>!
#70000
0!
0K
0:!
0t
0;!
#75000
1!
1K
1:!
1t
1;!
0r!
0q!
0p!
1<!
1D!
#80000
0!
0K
0:!
0t
0;!
#85000
1!
1K
1:!
1t
1;!
1r!
1("
0H!
0<!
1=!
1@!
1A!
0D!
1B!
#90000
0!
0K
0:!
0t
0;!
#95000
1!
1K
1:!
1t
1;!
0r!
1q!
0,"
1+"
0~!
0I!
0B!
1C!
1E!
1?!
1<!
0@!
0A!
1K!
1B!
0E!
#100000
0!
0K
0:!
0t
0;!
#105000
1!
1K
1:!
1t
1;!
1r!
0<!
0=!
1>!
0K!
1N!
#110000
0!
0K
0:!
0t
0;!
#115000
1!
1K
1:!
1t
1;!
0r!
0q!
1p!
1<!
0N!
#120000
0!
0K
0:!
0t
0;!
#125000
1!
1K
1:!
1t
1;!
1r!
0<!
1=!
#130000
0!
0K
0:!
0t
0;!
#135000
1!
1K
1:!
1t
1;!
0r!
1q!
1<!
#140000
0!
0K
0:!
0t
0;!
#145000
1!
1K
1:!
1t
1;!
1r!
0<!
0=!
0>!
#150000
0!
0K
0:!
0t
0;!
#155000
1!
1K
1:!
1t
1;!
0r!
0q!
0p!
1<!
1D!
#160000
0!
0K
0:!
0t
0;!
#165000
1!
1K
1:!
1t
1;!
1r!
1'"
0("
0<!
1=!
1@!
0D!
#170000
0!
0K
0:!
0t
0;!
#175000
1!
1K
1:!
1t
1;!
0r!
1q!
1,"
0a!
0J!
0O!
0?!
1<!
0@!
1K!
0L!
#180000
0!
0K
0:!
0t
0;!
#185000
1!
1K
1:!
1t
1;!
1r!
0M!
0<!
0=!
1>!
0K!
#190000
0!
0K
0:!
0t
0;!
#195000
1!
1K
1:!
1t
1;!
0r!
0q!
1p!
1<!
#200000
0!
0K
0:!
0t
0;!
#205000
1!
1K
1:!
1t
1;!
1r!
0<!
1=!
#210000
0!
0K
0:!
0t
0;!
#215000
1!
1K
1:!
1t
1;!
0r!
1q!
1<!
#220000
0!
0K
0:!
0t
0;!
#225000
1!
1K
1:!
1t
1;!
1r!
0<!
0=!
0>!
#230000
0!
0K
0:!
0t
0;!
#235000
1!
1K
1:!
1t
1;!
0r!
0q!
0p!
1<!
1D!
#240000
0!
0K
0:!
0t
0;!
#245000
1!
1K
1:!
1t
1;!
1r!
1("
0<!
1=!
1@!
1A!
0D!
0B!
1E!
#250000
0!
0K
0:!
0t
0;!
#255000
1!
1K
1:!
1t
1;!
0r!
1q!
0,"
0+"
1*"
1F!
1B!
0C!
1?!
1<!
0@!
0A!
1K!
0B!
#260000
0!
0K
0:!
0t
0;!
#265000
1!
1K
1:!
1t
1;!
1r!
0<!
0=!
1>!
0K!
#270000
0!
0K
0:!
0t
0;!
#275000
1!
1K
1:!
1t
1;!
0r!
0q!
1p!
1<!
#280000
0!
0K
0:!
0t
0;!
#285000
1!
1K
1:!
1t
1;!
1r!
0<!
1=!
#290000
0!
0K
0:!
0t
0;!
#295000
1!
1K
1:!
1t
1;!
0r!
1q!
1<!
#300000
0!
0K
0:!
0t
0;!
#305000
1!
1K
1:!
1t
1;!
1r!
0<!
0=!
0>!
#310000
0!
0K
0:!
0t
0;!
#315000
1!
1K
1:!
1t
1;!
0r!
0q!
0p!
1<!
1D!
#320000
0!
0K
0:!
0t
0;!
#325000
1!
1K
1:!
1t
1;!
1r!
0'"
1&"
0("
0<!
1=!
1@!
0D!
#330000
0!
0K
0:!
0t
0;!
#335000
1!
1K
1:!
1t
1;!
0r!
1q!
1,"
0?!
1<!
0@!
1K!
#340000
0!
0K
0:!
0t
0;!
#345000
1!
1K
1:!
1t
1;!
1r!
0<!
0=!
1>!
0K!
#350000
0!
0K
0:!
0t
0;!
#355000
1!
1K
1:!
1t
1;!
0r!
0q!
1p!
1<!
#360000
0!
0K
0:!
0t
0;!
#365000
1!
1K
1:!
1t
1;!
1r!
0<!
1=!
#370000
0!
0K
0:!
0t
0;!
#375000
1!
1K
1:!
1t
1;!
0r!
1q!
1<!
#380000
0!
0K
0:!
0t
0;!
#385000
1!
1K
1:!
1t
1;!
1r!
0<!
0=!
0>!
#390000
0!
0K
0:!
0t
0;!
#395000
1!
1K
1:!
1t
1;!
0r!
0q!
0p!
1<!
1D!
#400000
0!
0K
0:!
0t
0;!
#405000
1!
1K
1:!
1t
1;!
1r!
1("
0<!
1=!
1@!
1A!
0D!
1B!
#410000
0!
0K
0:!
0t
0;!
#415000
1!
1K
1:!
1t
1;!
0r!
1q!
0,"
1+"
0B!
1C!
0E!
1G!
1?!
1<!
0@!
0A!
1K!
1B!
1E!
0G!
#420000
0!
0K
0:!
0t
0;!
#425000
1!
1K
1:!
1t
1;!
1r!
0<!
0=!
1>!
0K!
#430000
0!
0K
0:!
0t
0;!
#435000
1!
1K
1:!
1t
1;!
0r!
0q!
1p!
1<!
#440000
0!
0K
0:!
0t
0;!
#445000
1!
1K
1:!
1t
1;!
1r!
0<!
1=!
#450000
0!
0K
0:!
0t
0;!
#455000
1!
1K
1:!
1t
1;!
0r!
1q!
1<!
#460000
0!
0K
0:!
0t
0;!
#465000
1!
1K
1:!
1t
1;!
1r!
0<!
0=!
0>!
#470000
0!
0K
0:!
0t
0;!
#475000
1!
1K
1:!
1t
1;!
0r!
0q!
0p!
1<!
1D!
#480000
0!
0K
0:!
0t
0;!
#485000
1!
1K
1:!
1t
1;!
1r!
1'"
0("
0<!
1=!
1@!
0D!
#490000
0!
0K
0:!
0t
0;!
#495000
1!
1K
1:!
1t
1;!
0r!
1q!
1,"
0?!
1<!
0@!
1K!
#500000
0!
0K
0:!
0t
0;!
#505000
1!
1K
1:!
1t
1;!
1r!
0<!
0=!
1>!
0K!
#510000
0!
0K
0:!
0t
0;!
#515000
1!
1K
1:!
1t
1;!
0r!
0q!
1p!
1<!
#520000
0!
0K
0:!
0t
0;!
#525000
1!
1K
1:!
1t
1;!
1r!
0<!
1=!
#530000
0!
0K
0:!
0t
0;!
#535000
1!
1K
1:!
1t
1;!
0r!
1q!
1<!
#540000
0!
0K
0:!
0t
0;!
#545000
1!
1K
1:!
1t
1;!
1r!
0<!
0=!
0>!
#550000
0!
0K
0:!
0t
0;!
#555000
1!
1K
1:!
1t
1;!
0r!
0q!
0p!
1<!
1D!
#560000
0!
0K
0:!
0t
0;!
#565000
1!
1K
1:!
1t
1;!
1r!
1("
0<!
1=!
1@!
1A!
0D!
0B!
0E!
1G!
#570000
0!
0K
0:!
0t
0;!
#575000
1!
1K
1:!
1t
1;!
0r!
1q!
0,"
0+"
0*"
1)"
0F!
1B!
0C!
1?!
1<!
0@!
0A!
1K!
0B!
#580000
0!
0K
0:!
0t
0;!
#585000
1!
1K
1:!
1t
1;!
1r!
0<!
0=!
1>!
0K!
#590000
0!
0K
0:!
0t
0;!
#595000
1!
1K
1:!
1t
1;!
0r!
0q!
1p!
1<!
#600000
0!
0K
0:!
0t
0;!
#605000
1!
1K
1:!
1t
1;!
1r!
0<!
1=!
#610000
0!
0K
0:!
0t
0;!
#615000
1!
1K
1:!
1t
1;!
0r!
1q!
1<!
#620000
0!
0K
0:!
0t
0;!
#625000
1!
1K
1:!
1t
1;!
1r!
0<!
0=!
0>!
#630000
0!
0K
0:!
0t
0;!
#635000
1!
1K
1:!
1t
1;!
0r!
0q!
0p!
1<!
1D!
#640000
0!
0K
0:!
0t
0;!
#645000
1!
1K
1:!
1t
1;!
1r!
0'"
0&"
1%"
0("
0<!
1=!
1@!
0D!
#650000
0!
0K
0:!
0t
0;!
#655000
1!
1K
1:!
1t
1;!
0r!
1q!
1,"
0?!
1<!
0@!
1K!
#660000
0!
0K
0:!
0t
0;!
#665000
1!
1K
1:!
1t
1;!
1r!
0<!
0=!
1>!
0K!
#670000
0!
0K
0:!
0t
0;!
#675000
1!
1K
1:!
1t
1;!
0r!
0q!
1p!
1<!
#680000
0!
0K
0:!
0t
0;!
#685000
1!
1K
1:!
1t
1;!
1r!
0<!
1=!
#690000
0!
0K
0:!
0t
0;!
#695000
1!
1K
1:!
1t
1;!
0r!
1q!
1<!
#700000
0!
0K
0:!
0t
0;!
#705000
1!
1K
1:!
1t
1;!
1r!
0<!
0=!
0>!
#710000
0!
0K
0:!
0t
0;!
#715000
1!
1K
1:!
1t
1;!
0r!
0q!
0p!
1<!
1D!
#720000
0!
0K
0:!
0t
0;!
#725000
1!
1K
1:!
1t
1;!
1r!
1("
0<!
1=!
1@!
1A!
0D!
1B!
#730000
0!
0K
0:!
0t
0;!
#735000
1!
1K
1:!
1t
1;!
0r!
1q!
0,"
1+"
0B!
1C!
1E!
1?!
1<!
0@!
0A!
1K!
1B!
0E!
#740000
0!
0K
0:!
0t
0;!
#745000
1!
1K
1:!
1t
1;!
1r!
0<!
0=!
1>!
0K!
#750000
0!
0K
0:!
0t
0;!
#755000
1!
1K
1:!
1t
1;!
0r!
0q!
1p!
1<!
#760000
0!
0K
0:!
0t
0;!
#765000
1!
1K
1:!
1t
1;!
1r!
0<!
1=!
#770000
0!
0K
0:!
0t
0;!
#775000
1!
1K
1:!
1t
1;!
0r!
1q!
1<!
#780000
0!
0K
0:!
0t
0;!
#785000
1!
1K
1:!
1t
1;!
1r!
0<!
0=!
0>!
#790000
0!
0K
0:!
0t
0;!
#795000
1!
1K
1:!
1t
1;!
0r!
0q!
0p!
1<!
1D!
#800000
0!
0K
0:!
0t
0;!
#805000
1!
1K
1:!
1t
1;!
1r!
1'"
0("
0<!
1=!
1@!
0D!
#810000
0!
0K
0:!
0t
0;!
#815000
1!
1K
1:!
1t
1;!
0r!
1q!
1,"
0?!
1<!
0@!
1K!
#820000
0!
0K
0:!
0t
0;!
#825000
1!
1K
1:!
1t
1;!
1r!
0<!
0=!
1>!
0K!
#830000
0!
0K
0:!
0t
0;!
#835000
1!
1K
1:!
1t
1;!
0r!
0q!
1p!
1<!
#840000
0!
0K
0:!
0t
0;!
#845000
1!
1K
1:!
1t
1;!
1r!
0<!
1=!
#850000
0!
0K
0:!
0t
0;!
#855000
1!
1K
1:!
1t
1;!
0r!
1q!
1<!
#860000
0!
0K
0:!
0t
0;!
#865000
1!
1K
1:!
1t
1;!
1r!
0<!
0=!
0>!
#870000
0!
0K
0:!
0t
0;!
#875000
1!
1K
1:!
1t
1;!
0r!
0q!
0p!
1<!
1D!
#880000
0!
0K
0:!
0t
0;!
#885000
1!
1K
1:!
1t
1;!
1r!
1("
0<!
1=!
1@!
1A!
0D!
0B!
1E!
#890000
0!
0K
0:!
0t
0;!
#895000
1!
1K
1:!
1t
1;!
0r!
1q!
0,"
0+"
1*"
1F!
1B!
0C!
1?!
1<!
0@!
0A!
1K!
0B!
#900000
0!
0K
0:!
0t
0;!
#905000
1!
1K
1:!
1t
1;!
1r!
0<!
0=!
1>!
0K!
#910000
0!
0K
0:!
0t
0;!
#915000
1!
1K
1:!
1t
1;!
0r!
0q!
1p!
1<!
#920000
0!
0K
0:!
0t
0;!
#925000
1!
1K
1:!
1t
1;!
1r!
0<!
1=!
#930000
0!
0K
0:!
0t
0;!
#935000
1!
1K
1:!
1t
1;!
0r!
1q!
1<!
#940000
0!
0K
0:!
0t
0;!
#945000
1!
1K
1:!
1t
1;!
1r!
0<!
0=!
0>!
#950000
0!
0K
0:!
0t
0;!
#955000
1!
1K
1:!
1t
1;!
0r!
0q!
0p!
1<!
1D!
#960000
0!
0K
0:!
0t
0;!
#965000
1!
1K
1:!
1t
1;!
1r!
0'"
1&"
0("
0<!
1=!
1@!
0D!
#970000
0!
0K
0:!
0t
0;!
#975000
1!
1K
1:!
1t
1;!
0r!
1q!
1,"
0?!
1<!
0@!
1K!
#980000
0!
0K
0:!
0t
0;!
#985000
1!
1K
1:!
1t
1;!
1r!
0<!
0=!
1>!
0K!
#990000
0!
0K
0:!
0t
0;!
#995000
1!
1K
1:!
1t
1;!
0r!
0q!
1p!
1<!
#1000000
0!
0K
0:!
0t
0;!
#1005000
1!
1K
1:!
1t
1;!
1r!
0<!
1=!
#1010000
0!
0K
0:!
0t
0;!
#1015000
1!
1K
1:!
1t
1;!
0r!
1q!
1<!
#1020000
0!
0K
0:!
0t
0;!
#1025000
1!
1K
1:!
1t
1;!
1r!
0<!
0=!
0>!
#1030000
0!
0K
0:!
0t
0;!
#1035000
1!
1K
1:!
1t
1;!
0r!
0q!
0p!
1<!
1D!
#1040000
0!
0K
0:!
0t
0;!
#1045000
1!
1K
1:!
1t
1;!
1r!
1("
0<!
1=!
1@!
1A!
0D!
1B!
#1050000
0!
0K
0:!
0t
0;!
#1055000
1!
1K
1:!
1t
1;!
0r!
1q!
0,"
1+"
0B!
1C!
0E!
0G!
1?!
1<!
0@!
0A!
1K!
1B!
1E!
1G!
#1060000
0!
0K
0:!
0t
0;!
#1065000
1!
1K
1:!
1t
1;!
1r!
0<!
0=!
1>!
0K!
#1070000
0!
0K
0:!
0t
0;!
#1075000
1!
1K
1:!
1t
1;!
0r!
0q!
1p!
1<!
#1080000
0!
0K
0:!
0t
0;!
#1085000
1!
1K
1:!
1t
1;!
1r!
0<!
1=!
#1090000
0!
0K
0:!
0t
0;!
#1095000
1!
1K
1:!
1t
1;!
0r!
1q!
1<!
#1100000
0!
0K
0:!
0t
0;!
#1105000
1!
1K
1:!
1t
1;!
1r!
0<!
0=!
0>!
#1110000
0!
0K
0:!
0t
0;!
#1115000
1!
1K
1:!
1t
1;!
0r!
0q!
0p!
1<!
1D!
#1120000
0!
0K
0:!
0t
0;!
#1125000
1!
1K
1:!
1t
1;!
1r!
1'"
0("
0<!
1=!
1@!
0D!
#1130000
0!
0K
0:!
0t
0;!
#1135000
1!
1K
1:!
1t
1;!
0r!
1q!
1,"
0?!
1<!
0@!
1K!
#1140000
0!
0K
0:!
0t
0;!
#1145000
1!
1K
1:!
1t
1;!
1r!
0<!
0=!
1>!
0K!
#1150000
0!
0K
0:!
0t
0;!
#1155000
1!
1K
1:!
1t
1;!
0r!
0q!
1p!
1<!
#1160000
0!
0K
0:!
0t
0;!
#1165000
1!
1K
1:!
1t
1;!
1r!
0<!
1=!
#1170000
0!
0K
0:!
0t
0;!
#1175000
1!
1K
1:!
1t
1;!
0r!
1q!
1<!
#1180000
0!
0K
0:!
0t
0;!
#1185000
1!
1K
1:!
1t
1;!
1r!
0<!
0=!
0>!
#1190000
0!
0K
0:!
0t
0;!
#1195000
1!
1K
1:!
1t
1;!
0r!
0q!
0p!
1<!
1D!
#1200000
0!
0K
0:!
0t
0;!
#1205000
1!
1K
1:!
1t
1;!
1r!
1("
0<!
1=!
1@!
1A!
0D!
0B!
0E!
0G!
#1210000
0!
0K
0:!
0t
0;!
#1215000
1!
1K
1:!
1t
1;!
0r!
1q!
0,"
0+"
0*"
0)"
0F!
1B!
0C!
1?!
1<!
0@!
0A!
1K!
0B!
#1220000
0!
0K
0:!
0t
0;!
#1225000
1!
1K
1:!
1t
1;!
1r!
0<!
0=!
1>!
0K!
#1230000
0!
0K
0:!
0t
0;!
#1235000
1!
1K
1:!
1t
1;!
0r!
0q!
1p!
1<!
#1240000
0!
0K
0:!
0t
0;!
#1245000
1!
1K
1:!
1t
1;!
1r!
0<!
1=!
#1250000
0!
0K
0:!
0t
0;!
#1255000
1!
1K
1:!
1t
1;!
0r!
1q!
1<!
#1260000
0!
0K
0:!
0t
0;!
#1265000
1!
1K
1:!
1t
1;!
1r!
0<!
0=!
0>!
#1270000
0!
0K
0:!
0t
0;!
#1275000
1!
1K
1:!
1t
1;!
0r!
0q!
0p!
1<!
1D!
#1280000
0!
0K
0:!
0t
0;!
#1285000
1!
1K
1:!
1t
1;!
1r!
0'"
0&"
0%"
0("
1H!
0<!
1=!
1@!
0D!
#1290000
0!
0K
0:!
0t
0;!
#1295000
1!
1K
1:!
1t
1;!
0r!
1q!
1,"
1~!
1I!
0?!
1<!
0@!
1K!
#1300000
0!
0K
0:!
0t
0;!
#1305000
1!
1K
1:!
1t
1;!
1r!
0<!
0=!
1>!
0K!
#1310000
0!
0K
0:!
0t
0;!
#1315000
1!
1K
1:!
1t
1;!
0r!
0q!
1p!
1<!
#1320000
0!
0K
0:!
0t
0;!
#1325000
1!
1K
1:!
1t
1;!
1r!
0<!
1=!
#1330000
0!
0K
0:!
0t
0;!
#1335000
1!
1K
1:!
1t
1;!
0r!
1q!
1<!
#1340000
0!
0K
0:!
0t
0;!
#1345000
1!
1K
1:!
1t
1;!
1r!
0<!
0=!
0>!
#1350000
0!
0K
0:!
0t
0;!
#1355000
1!
1K
1:!
1t
1;!
0r!
0q!
0p!
1<!
1D!
#1360000
0!
0K
0:!
0t
0;!
#1365000
1!
1K
1:!
1t
1;!
1r!
1("
0H!
0<!
1=!
1@!
1A!
0D!
1B!
#1370000
0!
0K
0:!
0t
0;!
#1375000
1!
1K
1:!
1t
1;!
0r!
1q!
0,"
1+"
0~!
1a!
1J!
1O!
0I!
0B!
1C!
1E!
1?!
1<!
0@!
0A!
1K!
1L!
1B!
0E!
#1380000
0!
0K
0:!
0t
0;!
#1385000
1!
1K
1:!
1t
1;!
1r!
1M!
0<!
0=!
1>!
0K!
1N!
#1390000
0!
0K
0:!
0t
0;!
#1395000
1!
1K
1:!
1t
1;!
0r!
0q!
1p!
1<!
0N!
#1400000
0!
0K
0:!
0t
0;!
#1405000
1!
1K
1:!
1t
1;!
1r!
0<!
1=!
#1410000
0!
0K
0:!
0t
0;!
#1415000
1!
1K
1:!
1t
1;!
0r!
1q!
1<!
#1420000
0!
0K
0:!
0t
0;!
#1425000
1!
1K
1:!
1t
1;!
1r!
0<!
0=!
0>!
#1430000
0!
0K
0:!
0t
0;!
#1435000
1!
1K
1:!
1t
1;!
0r!
0q!
0p!
1<!
1D!
#1440000
0!
0K
0:!
0t
0;!
#1445000
1!
1K
1:!
1t
1;!
1r!
1'"
0("
0<!
1=!
1@!
0D!
#1450000
0!
0K
0:!
0t
0;!
#1455000
1!
1K
1:!
1t
1;!
0r!
1q!
1,"
0a!
0J!
0O!
0?!
1<!
0@!
1K!
0L!
#1460000
0!
0K
0:!
0t
0;!
#1465000
1!
1K
1:!
1t
1;!
1r!
0M!
0<!
0=!
1>!
0K!
#1470000
0!
0K
0:!
0t
0;!
#1475000
1!
1K
1:!
1t
1;!
0r!
0q!
1p!
1<!
#1480000
0!
0K
0:!
0t
0;!
#1485000
1!
1K
1:!
1t
1;!
1r!
0<!
1=!
#1490000
0!
0K
0:!
0t
0;!
